id;purpose;objective;methodology;list_of_abbreviation;other_resources;active;organisation_unit_id;financial_year_id
1;mobile Fish;Home Loan Account Table Computer;Trace;Savings Account alarm;Tasty Metal Bacon;true;1;1
2;Electronics;Soap methodology Albania;Home Namibia;Steel zero administration;Multi-channelled Licensed;true;2;2
3;syndicate;Mississippi Refined Rubber Chicken Table;Automotive;Planner cross-platform access;Public-key;false;3;3
4;Bahamian Dollar Investment Account;Games Regional Digitized;copy convergence;Mayotte;Industrial;true;4;4
5;Views e-enable Communications;National Awesome sky blue;Tactics;scale interactive generating;Specialist Home Loan Account;false;5;5
6;scalable;Small;deliverables reinvent 24 hour;overriding;monitor 1080p Checking Account;true;6;6
7;deposit Internal;Investment Account archive Fantastic Plastic Chicken;payment;withdrawal COM;embrace Developer;true;7;7
8;hard drive Robust Networked;Poland;Small partnerships;Outdoors;Harbor Montana;true;8;8
9;Concrete Investment Account Saint Lucia;User-centric;Money Market Account;Salad Web virtual;Refined Squares;false;9;9
10;e-business;Ghana back-end National;Direct;Profit-focused;Jewelery cutting-edge;false;10;10
