id;impact;likelihood;engagement_objective_id;risk_id
1;37454;79654;1;1
2;95071;18343;2;2
3;73199;77969;3;3
4;59865;59685;4;4
5;15601;44583;5;5
6;15599;9997;6;6
7;5808;45924;7;7
8;86617;33370;8;8
9;60111;14286;9;9
10;70807;65088;10;10
