id;condition;cause;number_of_error;total_value_amount;impact_on_assurance;recommendation;action_plan;action_plan_category;procedure_id
1;Ergonomic Concrete Soap Zambian Kwacha;../fake-data/blob/hipster.txt;35864;14008;Bedfordshire;../fake-data/blob/hipster.txt;../fake-data/blob/hipster.txt;HIGH;1
2;real-time discrete redundant;../fake-data/blob/hipster.txt;81011;25620;Personal Loan Account Sleek Beauty;../fake-data/blob/hipster.txt;../fake-data/blob/hipster.txt;MEDIUM;2
3;extend Unbranded Fresh Pants Tools;../fake-data/blob/hipster.txt;57886;9398;North Dakota Garden;../fake-data/blob/hipster.txt;../fake-data/blob/hipster.txt;HIGH;3
4;Utah Computers Small Fresh Gloves;../fake-data/blob/hipster.txt;36019;53708;interface;../fake-data/blob/hipster.txt;../fake-data/blob/hipster.txt;HIGH;4
5;backing up;../fake-data/blob/hipster.txt;19438;53135;Peru deposit;../fake-data/blob/hipster.txt;../fake-data/blob/hipster.txt;HIGH;5
6;redundant;../fake-data/blob/hipster.txt;27083;43352;bypass Ameliorated;../fake-data/blob/hipster.txt;../fake-data/blob/hipster.txt;HIGH;6
7;infomediaries Som Rustic Frozen Keyboard;../fake-data/blob/hipster.txt;44235;25024;Benin;../fake-data/blob/hipster.txt;../fake-data/blob/hipster.txt;HIGH;7
8;alarm Jamaica;../fake-data/blob/hipster.txt;61172;73003;Gorgeous Rubber Pants Cheese;../fake-data/blob/hipster.txt;../fake-data/blob/hipster.txt;MEDIUM;8
9;Small;../fake-data/blob/hipster.txt;9415;4072;JBOD;../fake-data/blob/hipster.txt;../fake-data/blob/hipster.txt;HIGH;9
10;Hollow Shoes systems;../fake-data/blob/hipster.txt;39850;4805;Web HTTP;../fake-data/blob/hipster.txt;../fake-data/blob/hipster.txt;LOW;10
