{
    "fluentMethods": true,
    "clientRootFolder": "",
    "relationships": [
        {
            "relationshipName": "auditPlanSchedule",
            "otherEntityName": "auditPlanSchedule",
            "relationshipType": "many-to-one",
            "otherEntityField": "id",
            "otherEntityRelationshipName": "auditPlanScheduleQuarter"
        },
        {
            "relationshipName": "quarter",
            "otherEntityName": "quarter",
            "relationshipType": "many-to-one",
            "relationshipValidateRules": [
                "required"
            ],
            "otherEntityField": "id",
            "otherEntityRelationshipName": "auditPlanScheduleQuarter"
        }
    ],
    "fields": [
        {
            "fieldName": "totalDays",
            "fieldType": "Integer",
            "fieldValidateRules": [
                "required"
            ]
        }
    ],
    "changelogDate": "20190918094730",
    "dto": "no",
    "searchEngine": false,
    "service": "serviceImpl",
    "entityTableName": "audit_plan_schedule_quarter",
    "databaseType": "sql",
    "jpaMetamodelFiltering": true,
    "pagination": "pagination"
}
