{
    "fluentMethods": true,
    "clientRootFolder": "",
    "relationships": [
        {
            "relationshipName": "organisationUnit",
            "otherEntityName": "organisationUnit",
            "relationshipType": "many-to-one",
            "relationshipValidateRules": [
                "required"
            ],
            "otherEntityField": "id",
            "otherEntityRelationshipName": "matterOfNextAudit"
        },
        {
            "relationshipName": "auditee",
            "otherEntityName": "organisationUnit",
            "relationshipType": "many-to-one",
            "relationshipValidateRules": [
                "required"
            ],
            "otherEntityField": "id",
            "otherEntityRelationshipName": "matterOfNextAudit"
        },
        {
            "relationshipName": "engagement",
            "otherEntityName": "engagement",
            "relationshipType": "many-to-one",
            "otherEntityField": "id",
            "otherEntityRelationshipName": "matterOfNextAudit"
        },
        {
            "relationshipName": "auditableArea",
            "otherEntityName": "auditableArea",
            "relationshipType": "many-to-one",
            "relationshipValidateRules": [
                "required"
            ],
            "otherEntityField": "id",
            "otherEntityRelationshipName": "matterOfNextAudit"
        }
    ],
    "fields": [
        {
            "fieldName": "name",
            "fieldType": "String",
            "fieldValidateRules": [
                "required"
            ]
        },
        {
            "fieldName": "description",
            "fieldType": "byte[]",
            "fieldTypeBlobContent": "text"
        }
    ],
    "changelogDate": "20200117120334",
    "dto": "no",
    "searchEngine": false,
    "service": "serviceImpl",
    "entityTableName": "matter_of_next_audit",
    "databaseType": "sql",
    "jpaMetamodelFiltering": true,
    "pagination": "pagination"
}
