{
    "name": "PeriodType",
    "fields": [
        {
            "fieldName": "code",
            "fieldType": "String",
            "fieldValidateRules": [
                "unique",
                "maxlength"
            ],
            "fieldValidateRulesMaxlength": 50
        },
        {
            "fieldName": "name",
            "fieldType": "String",
            "fieldValidateRules": [
                "unique",
                "required",
                "maxlength"
            ],
            "fieldValidateRulesMaxlength": 50
        }
    ],
    "relationships": [],
    "changelogDate": "20190905125011",
    "entityTableName": "period_type",
    "dto": "no",
    "pagination": "pagination",
    "service": "serviceImpl",
    "jpaMetamodelFiltering": true,
    "fluentMethods": true,
    "clientRootFolder": "",
    "applications": "*"
}