{
    "fluentMethods": true,
    "clientRootFolder": "",
    "relationships": [
        {
            "relationshipType": "one-to-many",
            "otherEntityName": "riskRating",
            "otherEntityRelationshipName": "risk",
            "relationshipName": "riskRatings"
        },
        {
            "relationshipType": "one-to-many",
            "otherEntityName": "riskControl",
            "otherEntityRelationshipName": "risk",
            "relationshipName": "controls"
        },
        {
            "relationshipType": "many-to-one",
            "otherEntityName": "riskRegister",
            "otherEntityRelationshipName": "risk",
            "relationshipValidateRules": "required",
            "relationshipName": "riskRegister",
            "otherEntityField": "name"
        },
        {
            "relationshipType": "many-to-one",
            "otherEntityName": "target",
            "otherEntityRelationshipName": "risk",
            "relationshipValidateRules": "required",
            "relationshipName": "target",
            "otherEntityField": "description"
        },
        {
            "relationshipName": "organisationUnit",
            "otherEntityName": "organisationUnit",
            "relationshipType": "many-to-one",
            "relationshipValidateRules": [
                "required"
            ],
            "otherEntityField": "id",
            "otherEntityRelationshipName": "risk"
        },
        {
            "relationshipName": "riskCategory",
            "otherEntityName": "riskCategory",
            "relationshipType": "many-to-one",
            "relationshipValidateRules": [
                "required"
            ],
            "otherEntityField": "id",
            "otherEntityRelationshipName": "risk"
        }
    ],
    "fields": [
        {
            "fieldName": "code",
            "fieldType": "String",
            "fieldValidateRules": [
                "required",
                "maxlength",
                "unique"
            ],
            "fieldValidateRulesMaxlength": 50
        },
        {
            "fieldName": "name",
            "fieldType": "String",
            "fieldValidateRules": [
                "required"
            ]
        },
        {
            "fieldName": "description",
            "fieldType": "String",
            "fieldValidateRules": [
                "maxlength"
            ],
            "fieldValidateRulesMaxlength": 1000
        },
        {
            "fieldName": "source",
            "fieldType": "RiskSource",
            "fieldValues": "MANAGEMENT,AUDITOR,ENGAGEMENT",
            "fieldValidateRules": [
                "required"
            ]
        },
        {
            "fieldName": "causes",
            "fieldType": "String",
            "fieldValidateRules": [
                "maxlength"
            ],
            "fieldValidateRulesMaxlength": 2000
        },
        {
            "fieldName": "consequences",
            "fieldType": "String",
            "fieldValidateRules": [
                "maxlength"
            ],
            "fieldValidateRulesMaxlength": 2000
        },
        {
            "fieldName": "treatments",
            "fieldType": "String",
            "fieldValidateRules": [
                "maxlength"
            ],
            "fieldValidateRulesMaxlength": 2000
        },
        {
            "fieldName": "resources",
            "fieldType": "String",
            "fieldValidateRules": [
                "maxlength"
            ],
            "fieldValidateRulesMaxlength": 2000
        },
        {
            "fieldName": "completed",
            "fieldType": "Boolean",
            "fieldValidateRules": [
                "required"
            ]
        }
    ],
    "changelogDate": "20190918065516",
    "dto": "no",
    "searchEngine": false,
    "service": "serviceImpl",
    "entityTableName": "risk",
    "databaseType": "sql",
    "jpaMetamodelFiltering": true,
    "pagination": "pagination"
}
